v 20130925 2
C 48900 47200 1 0 0 speaker-2.sym
{
T 50800 50100 5 10 0 0 0 0 1
device=SPEAKER
T 49500 49200 5 10 0 1 0 0 1
refdes=SPK?
}
C 48500 49100 1 270 0 capacitor-3.sym
{
T 49200 48900 5 10 0 0 270 0 1
device=POLARIZED_CAPACITOR
T 48200 48500 5 10 1 1 0 0 1
refdes=C?
T 49400 48900 5 10 0 0 270 0 1
symversion=0.1
}
C 48400 45500 1 90 0 resistor-1.sym
{
T 48000 45800 5 10 0 0 90 0 1
device=RESISTOR
T 48100 45700 5 10 0 1 90 0 1
refdes=R?
T 48400 45500 5 10 1 1 0 0 1
value=10K
}
C 47800 45500 1 90 0 resistor-1.sym
{
T 47400 45800 5 10 0 0 90 0 1
device=RESISTOR
T 47500 45700 5 10 0 1 90 0 1
refdes=R?
T 47800 45500 5 10 1 1 0 0 1
value=10K
}
C 47700 49000 1 0 0 input-1.sym
{
T 47700 49300 5 10 0 0 0 0 1
device=INPUT
T 48000 49000 5 10 1 1 0 0 1
netname=4
}
C 47300 44900 1 180 0 output-1.sym
{
T 47200 44600 5 10 0 0 180 0 1
device=OUTPUT
T 46900 44900 5 10 1 1 180 0 1
netname=A0
}
C 47300 44500 1 180 0 output-1.sym
{
T 47200 44200 5 10 0 0 180 0 1
device=OUTPUT
T 46900 44500 5 10 1 1 180 0 1
netname=A1
}
C 49100 44200 1 0 0 header3-1.sym
{
T 50100 44850 5 10 0 0 0 0 1
device=HEADER3
T 49500 45500 5 10 0 1 0 0 1
refdes=J?
}
C 47300 46900 1 0 0 input-1.sym
{
T 47300 47200 5 10 0 0 0 0 1
device=INPUT
T 47400 46900 5 10 1 1 0 0 1
netname=Gnd
}
C 46500 46300 1 0 0 input-1.sym
{
T 46500 46600 5 10 0 0 0 0 1
device=INPUT
T 46700 46300 5 10 1 1 0 0 1
netname=+5
}
N 48500 49100 48900 49100 4
N 47300 44800 49100 44800 4
N 49100 44400 47300 44400 4
N 48100 47000 48800 47000 4
N 48800 45200 48800 47000 4
N 48800 45200 49100 45200 4
N 48300 45500 48300 44800 4
N 47700 45500 47700 44400 4
N 48300 46400 47300 46400 4
N 48700 48200 48700 47000 4
N 48900 47900 48700 47900 4
C 43000 42000 1 0 0 title-A4.sym
{
T 43000 42000 5 10 0 1 0 0 1
value=1
}
T 47800 42400 9 10 1 0 0 0 1
Shield.sch
T 47900 42100 9 10 1 0 0 0 1
1
T 49400 42100 9 10 1 0 0 0 1
1
T 51600 42400 9 10 1 0 0 0 1
1
T 51600 42100 9 10 1 0 0 0 1
John J. McDonough, WB8RCR
T 47900 42800 9 24 1 0 0 0 1
Keyer Shield
